{
  "info": [
    {
      "id": 2,
      "nombre_completo": "Andrés Fernado Garcia Meza",
      "profesion": "Ingeniero Químico",
      "descripcion": "Soy una persona tranquila, a la que no le gusta forzar ideas, siempre tiene que haber entendimiento. Sobre mis gustos, pues me gusta el anime, videojuegos y el karate",
      "correo": "angarcia@lsv-tech.com"
    },
    {
      "id": 3,
      "nombre_completo": " Juan Sebastián Sierra Bravo",
      "profesion": "Ingeniero Mecatrónica",
      "descripcion": "Encuentro interés en temas relacionado al desarrollo web, inteligencia artificial y robótica. Me gusta aprender nuevas cosas y compartir mis conocimientos con los demás.",
      "correo": "jsierra@lsv-tech.com"
    },
    {
      "id": 4,
      "nombre_completo": "Steeven José Altamiranda González",
      "profesion": "Ingeniero Químico",
      "descripcion": "Soy un profesional en la rama de la ingeniería química, con gran capacidad de adaptación y rápido aprendizaje, autodidacta, perseverante, con buenas capacidades comunicativas.",
      "correo": "saltamiranda@lsv-tech.com"
    },

    {
      "id": 5,
      "nombre_completo": "Ricardo E. Jaramillo Acevedo",
      "profesion": "Ingeniero de sistemas",
      "descripcion": "Soy una persona apasionada por la programación, soy proactivo, autodidacta y me gustan las películas y aprender cada día para estar actualizado en la tecnología.",
      "correo": "rjaramillo@lsv-tech.com"
    },

    {
      "id": 6,
      "nombre_completo": "Deiver José Vázquez Moreno",
      "profesion": "Estudiante CAR IV",
      "descripcion": "Soy un joven de 21 años muy disciplinado, que le gusta aprender, desarrollar proyectos y le encanta la música.",
      "correo": "@lsv-tech.com"
    },
    {
      "id": 7,
      "nombre_completo": "Andrés Felipe Molinares Bolaños",
      "profesion": "Tecnólogo en gestión de sistemas de información y redes de computo",
      "descripcion": "Apasionado por aprender y ser mejor cada día desarrollando software",
      "correo": "fmolinares@lsv-tech.com"
    },
    {
      "id": 8,
      "nombre_completo": "Yilber Enrique Molina Devoz",
      "profesion": "Ingeniero de Sistemas",
      "descripcion": "Soy una Persona Alegre, responsable, me gusta compartir con mi familia",
      "correo": "ymolina@lsv-tech.com"
    },
    {
      "id": 10,
      "nombre_completo": "Juan Pablo Lara Angulo",
      "profesion": "Técnico en Sistemas y Tecnólogo Informático",
      "descripcion": "Me gusta mucho la tecnología, la ciencia ficción y sobre todo el terror. En cuanto a desarrollo me he dedicado a emprendimientos pequeño ayudando en el FrontEnd y manejo de CMS, me intereso por aprender sobre nuevas tecnologías y ahora mi objetivo es el desarrollo.",
      "correo": "jlara@lsv-tech.com"
    },
    {
      "id": 11,
      "nombre_completo": "Oscar de Jesús Ballestas Ortega",
      "profesion": "Ingeniero Mecatrónica e Ingeniero Electrónico",
      "descripcion": " He tenido la oportunidad de participar en proyectos de IoT, ahora, en LSV-Tech, inicio mi camino como desarrollador de software.",
      "correo": "oballestas@lsv-tech.com"
    },
    {
      "id": 13,
      "nombre_completo": "Isaac Daniel Benavides Torres",
      "profesion": "Desarrollador de software",
      "descripcion": "Desarrollador fullstack con enfasis en flutter, react native, reactjs, vuejs y django. ",
      "correo": "ibenavides@lsv-tech.com"
    },
    {
      "id": 14,
      "nombre_completo": "Herly de Jesus Castillo Castillo",
      "profesion": "Ingeniero de sistemas",
      "descripcion": "Soy una persona responsable, me gusta hacer las cosas con dedicación y bien hechas, me gusta divertirme con amigos, compañeros, etc., jugando futbol cada vez que se pueda, aunque no lo haga también.",
      "correo": "hcastillo@lsv-tech.com"
    }
  ]
}
